Assignment MC2
…
gps_sf <- st_as_sf(gps, 
                   coords = c("long", "lat"),
                       crs= 4326)
gps_sf

Simple feature collection with 685169 features and 3 fields
Geometry type: POINT
Dimension:     XY
Bounding box:  xmin: 24.82509 ymin: 36.04802 xmax: 24.90849 ymax: 36.08996
Geodetic CRS:  WGS 84
# A tibble: 685,169 x 4
   Timestamp           id    weekday            geometry
 * <dttm>              <fct> <ord>           <POINT [°]>
 1 2014-01-06 06:28:01 35    Monday  (24.87469 36.07623)
 2 2014-01-06 06:28:01 35    Monday   (24.8746 36.07622)
 3 2014-01-06 06:28:03 35    Monday  (24.87444 36.07621)
 4 2014-01-06 06:28:05 35    Monday  (24.87425 36.07622)
 5 2014-01-06 06:28:06 35    Monday  (24.87417 36.07621)
 6 2014-01-06 06:28:07 35    Monday  (24.87406 36.07619)
 7 2014-01-06 06:28:09 35    Monday  (24.87391 36.07619)
 8 2014-01-06 06:28:10 35    Monday  (24.87381 36.07618)
 9 2014-01-06 06:28:11 35    Monday  (24.87374 36.07617)
10 2014-01-06 06:28:12 35    Monday  (24.87362 36.07618)
# ... with 685,159 more rows
