Assignment - Mini Challenge 2
…
gps_sf <- st_as_sf(gps, 
                   coords = c("long", "lat"),
                       crs= 4326)
gps_sf

Simple feature collection with 685169 features and 3 fields
Geometry type: POINT
Dimension:     XY
Bounding box:  xmin: 24.82509 ymin: 36.04802 xmax: 24.90849 ymax: 36.08996
Geodetic CRS:  WGS 84
# A tibble: 685,169 x 4
   Timestamp           id    weekday            geometry
 * <dttm>              <fct> <ord>           <POINT [°]>
 1 2014-01-06 06:28:01 35    Monday  (24.87469 36.07623)
 2 2014-01-06 06:28:01 35    Monday   (24.8746 36.07622)
 3 2014-01-06 06:28:03 35    Monday  (24.87444 36.07621)
 4 2014-01-06 06:28:05 35    Monday  (24.87425 36.07622)
 5 2014-01-06 06:28:06 35    Monday  (24.87417 36.07621)
 6 2014-01-06 06:28:07 35    Monday  (24.87406 36.07619)
 7 2014-01-06 06:28:09 35    Monday  (24.87391 36.07619)
 8 2014-01-06 06:28:10 35    Monday  (24.87381 36.07618)
 9 2014-01-06 06:28:11 35    Monday  (24.87374 36.07617)
10 2014-01-06 06:28:12 35    Monday  (24.87362 36.07618)
# ... with 685,159 more rows
Derive the path data.

gps_path <- gps_sf %>%
  group_by(id, weekday) %>%
  summarize(m = mean(Timestamp), 
            do_union=FALSE) %>%
  st_cast("LINESTRING")
gps_path

Simple feature collection with 260 features and 3 fields
Geometry type: LINESTRING
Dimension:     XY
Bounding box:  xmin: 24.82509 ymin: 36.04802 xmax: 24.90849 ymax: 36.08996
Geodetic CRS:  WGS 84
# A tibble: 260 x 4
# Groups:   id [40]
   id    weekday  m                                           geometry
   <fct> <ord>    <dttm>                              <LINESTRING [°]>
 1 1     Sunday   2014-01-15 14:31:58 (24.88259 36.06643, 24.8824 36.~
 2 1     Monday   2014-01-09 17:37:44 (24.88258 36.06646, 24.88259 36~
 3 1     Tuesday  2014-01-11 01:34:40 (24.87957 36.04803, 24.87957 36~
 4 1     Wednesd~ 2014-01-11 12:30:08 (24.88265 36.06643, 24.88266 36~
 5 1     Thursday 2014-01-13 07:50:33 (24.88261 36.06646, 24.88257 36~
 6 1     Friday   2014-01-13 13:58:58 (24.88265 36.0665, 24.88261 36.~
 7 1     Saturday 2014-01-15 01:53:26 (24.88258 36.06651, 24.88246 36~
 8 2     Sunday   2014-01-16 03:54:17 (24.86041 36.08542, 24.86045 36~
 9 2     Monday   2014-01-10 05:54:49 (24.86038 36.08546, 24.86038 36~
10 2     Tuesday  2014-01-10 16:46:43 (24.86041 36.08549, 24.86037 36~
# ... with 250 more rows
…
